{
    "FitnessValue": 11.366093635559082,
    "Fitness_Stab": 0.25325828790664675,
    "Fitness_Coll": 0.0,
    "Fitness_Powr": 5.633785724639893,
    "Fitness_Dist": 20.296581268310548,
    "Fitness_Slip": 0.6267409324645996,
    "Distance": 20.296581268310548,
    "Energy": 5.633785724639893
}