{
    "FitnessValue": -0.13677358627319337,
    "Fitness_Stab": 1.0,
    "Fitness_Coll": 1.0,
    "Fitness_Powr": 3.5023839473724367,
    "Fitness_Dist": 4.463784694671631,
    "Fitness_Slip": 0.06128133833408356,
    "Distance": 4.463784694671631,
    "Energy": 3.5023839473724367
}