{
    "FitnessValue": 13.689505577087403,
    "Fitness_Stab": 0.17255477607250215,
    "Fitness_Coll": 0.0,
    "Fitness_Powr": 5.325004577636719,
    "Fitness_Dist": 22.03565216064453,
    "Fitness_Slip": 0.5849581956863403,
    "Distance": 22.03565216064453,
    "Energy": 5.325004577636719
}