{
    "ParameterSet": [
        0.10729754059113358,
        0.007731992837434401,
        -0.013404843098146995,
        -0.03269150546797025,
        0.10122374667091671,
        0.06318760576109775,
        0.15856400848776978,
        -0.018373484158722687,
        0.09611092002900838,
        -0.06174999301296465,
        0.02523870164226819,
        0.05254327456356978,
        0.09978324504775109,
        0.058657757837604935,
        0.08679322413697692,
        -0.0094399310859513,
        0.04720945290135752,
        -0.10123941743655171,
        0.12650637931560224,
        -0.09779009697254334,
        0.3359039122945374,
        0.11932762493246815,
        0.21039177620698984,
        0.046162682567537035,
        0.3203953780690962,
        0.2259291977812997,
        0.10530641022314807,
        0.33359050952344843,
        0.3698588081516162,
        0.1617147937411745,
        -0.007191068129073189,
        0.038444915965961286,
        0.110102455570996,
        0.053973002970045515,
        -0.00839192113019201,
        -0.03376247499074331,
        -0.06081238980111628,
        0.308042101144664,
        0.339274404219788,
        0.014371412169838225,
        -0.46464573170694123,
        -0.3861436716227124,
        -0.18622322617070905,
        -0.5036977497130812,
        -0.4308023439330366,
        -0.20040115609222817,
        -0.22625458053114156,
        -0.3030339308007849,
        -0.4126736777320504,
        -0.38891541174141847,
        -0.39311846640956416,
        -0.23494593407360814,
        -0.6236500236909421,
        -0.5725102062291983,
        -0.46627162422003937,
        -0.39419659083956593,
        -0.31899479457379504,
        -0.12814252975545792,
        -0.48726057335142375,
        0.21515990231128929
    ],
    "checked": "indirect",
    "iteration": 187,
    "noise": [
        -0.0010961260441631415,
        0.00020746477922560673,
        0.0018475582729406972,
        0.0058770544070352124,
        0.0010355611132737855,
        -0.00010247762937225944,
        -0.008501477943625773,
        0.005600404252356114,
        0.0010086891837071579,
        -0.000597897777444856,
        -0.012477576446846684,
        -0.000396907562510482,
        -0.005343346385191846,
        -0.0029557052236996034,
        0.0013185856182200385,
        -0.005426584646754169,
        0.0008338836838222158,
        0.000284115057906299,
        -0.0036772841050730235,
        0.0035143984390593147,
        -0.0025340763215846154,
        0.00014760166003276073,
        0.004309955096273312,
        -0.003043106056511133,
        0.002625456610439698,
        0.00508930000925083,
        -0.0023966006274535327,
        -0.007557247309477519,
        -0.002093061494273483,
        0.0071332031638346085,
        0.0016232372016793024,
        -0.00221189619674427,
        0.00373615620812596,
        -0.006745936604908806,
        0.008452265488389121,
        -0.00679948444134817,
        -0.0012863143574761281,
        -0.002366816731415845,
        0.0018611822430734065,
        -0.002457882924153742,
        0.001346842126709299,
        0.005313763650546743,
        -0.0003445606646576752,
        -0.003318172270445307,
        -0.0073139801707600045,
        0.0047336122041734185,
        -0.0004901166486120315,
        0.004404702766388558,
        -0.0026466190026661995,
        0.002257332539982669,
        0.010770596705321076,
        -0.0007643757120533764,
        0.0013917174833481473,
        -0.004398867418147422,
        -0.005026483060921106,
        -0.005594203751722545,
        0.0009549150768286649,
        -0.0033265507058616965,
        -3.80746016768817e-05,
        -0.0003894438589595706
    ],
    "noise_0": [
        -0.0010961260441631415,
        0.00020746477922560673,
        0.0018475582729406972,
        0.0058770544070352124,
        0.0010355611132737855,
        -0.00010247762937225944,
        -0.008501477943625773,
        0.005600404252356114,
        0.0010086891837071579,
        -0.000597897777444856,
        -0.012477576446846684,
        -0.000396907562510482,
        -0.005343346385191846,
        -0.0029557052236996034,
        0.0013185856182200385,
        -0.005426584646754169,
        0.0008338836838222158,
        0.000284115057906299,
        -0.0036772841050730235,
        0.0035143984390593147,
        -0.0025340763215846154,
        0.00014760166003276073,
        0.004309955096273312,
        -0.003043106056511133,
        0.002625456610439698,
        0.00508930000925083,
        -0.0023966006274535327,
        -0.007557247309477519,
        -0.002093061494273483,
        0.0071332031638346085,
        0.0016232372016793024,
        -0.00221189619674427,
        0.00373615620812596,
        -0.006745936604908806,
        0.008452265488389121,
        -0.00679948444134817,
        -0.0012863143574761281,
        -0.002366816731415845,
        0.0018611822430734065,
        -0.002457882924153742,
        0.001346842126709299,
        0.005313763650546743,
        -0.0003445606646576752,
        -0.003318172270445307,
        -0.0073139801707600045,
        0.0047336122041734185,
        -0.0004901166486120315,
        0.004404702766388558,
        -0.0026466190026661995,
        0.002257332539982669,
        0.010770596705321076,
        -0.0007643757120533764,
        0.0013917174833481473,
        -0.004398867418147422,
        -0.005026483060921106,
        -0.005594203751722545,
        0.0009549150768286649,
        -0.0033265507058616965,
        -3.80746016768817e-05,
        -0.0003894438589595706
    ],
    "noise_1": [
        0.001093786796533172,
        0.005422899441613605,
        0.0003484490352577915,
        -0.005682468336123688,
        -0.0033836118213277622,
        0.0020432844439843157,
        -0.00211279301590576,
        -0.0085497067499726,
        0.005544474844367408,
        0.005667432351135997,
        0.0015018759036577482,
        0.0012752621149349588,
        -0.003207313810287008,
        0.003129366978234017,
        -0.005394320418854445,
        -0.0030137465223816443,
        0.0018758084307559902,
        0.0029609978705439034,
        -7.176834214030003e-05,
        0.002079913487964049,
        0.0015374073766692468,
        0.0028279951865743803,
        0.0063612146279905055,
        -0.0017447594980990653,
        -0.002746085094200463,
        0.007473730707119555,
        -0.003865048025050589,
        -0.0053021552730328075,
        -0.0019978989582925865,
        -0.004072056707388874,
        0.0028950647399608506,
        0.004076318679186297,
        -0.0025206579121592023,
        0.0021183639597711443,
        0.003610590822044526,
        0.0007578329526814869,
        -0.0021845280963848413,
        0.000573967979482557,
        0.0005522902929388015,
        -0.002347220988345697,
        0.0011548646438408576,
        -0.0037485095727147295,
        -0.006261059642887884,
        0.003088065290757783,
        -0.003962926832382601,
        -0.0036896549654872384,
        0.00538171222603183,
        -0.007234364126643424,
        0.0028318314110741365,
        0.004318413456355902,
        -0.0006837399396482549,
        -0.001264467238366135,
        -0.006847817424747212,
        0.00010970627859361332,
        -0.005369577445955631,
        -0.0014253355613902436,
        0.003356785952093993,
        -0.004986081046002274,
        -0.0016212392122913256,
        0.006788713591704984
    ],
    "noise_2": [
        0.000249898586178498,
        -0.003579822974418547,
        0.0012740853218679916,
        0.008108792646764158,
        0.0033325470778474736,
        0.0009578050838465331,
        0.0015976783865040301,
        -0.0016867483850318235,
        -0.0028739435093507464,
        -0.003893312851856625,
        -0.0015734168561770143,
        0.005128219455643959,
        -0.008643139489376825,
        0.001082465281222776,
        -0.005174415027333454,
        -0.003597890336787521,
        -0.0033528405702455168,
        0.005205545221003614,
        -0.0048703137229442715,
        3.7149795353388354e-05,
        0.0020260514462707513,
        0.0010927319312745507,
        -0.003231009417935158,
        -0.0010205786804151652,
        -0.0035509113815494374,
        -0.00828257475623676,
        0.0022743704823545833,
        0.0017528932480031872,
        0.0016443566150672944,
        0.0012796218190735873,
        -0.008180453760706143,
        0.0010485379317767705,
        -0.002173671151815163,
        0.004920243672581614,
        -0.001495598473156738,
        0.0025882308992113278,
        0.005876092391190697,
        0.0015411541997006472,
        -0.00015468956698170972,
        -0.009081645959563255,
        -0.005296008157376586,
        0.001428768852879515,
        0.0021105615065008902,
        0.005348634699264908,
        0.0016858633140141304,
        -0.005838819567617487,
        -0.0034600601435069603,
        0.003124645843723433,
        0.0036873873960958457,
        0.0037638745691305833,
        -0.003611532492760469,
        0.001323890322246426,
        -0.0018457301099924894,
        -0.004393217272691661,
        0.004453326883119567,
        -0.0004223641279499942,
        0.005478992190129215,
        0.004650563969087515,
        -0.00010902257314159286,
        0.0019193020934598335
    ],
    "noise_3": [
        0.0005238137926456379,
        2.8517994507573686e-05,
        -0.002896670240014335,
        -0.0011574604904057634,
        -0.00033320391263931716,
        -0.0009844743755557882,
        0.004229048696746486,
        0.004258148284382224,
        -0.0028627885371624254,
        0.0025634873976759453,
        0.0023874023050890723,
        0.00018095944194580413,
        0.0012645329716128417,
        0.0003744863711208541,
        -0.0005829848885095364,
        -0.0012719635592814153,
        0.0010027610613521643,
        0.0013173666767949906,
        -0.005249146168344635,
        -0.0006480691211788424,
        -0.008449356655544117,
        0.0022236136457820747,
        -0.004019580408704326,
        0.001833298007016169,
        -0.005939029862694542,
        0.0007909617521214845,
        -0.004947316673997966,
        -0.0005236823884409481,
        -0.0067353196131444155,
        0.007768472424956888,
        -0.002010887285694146,
        0.003565600423924219,
        0.004580370139611016,
        0.004081818632756488,
        -0.0015485336091813743,
        0.005503262492655945,
        -0.004894935262257919,
        0.0045147416751782745,
        0.007037734697863456,
        0.0009234300252658552,
        -0.003938597272774295,
        0.005406550245081678,
        -0.005793737130066385,
        0.0023950616813585637,
        0.002986609572963991,
        -0.002983220522225197,
        -0.003181911045638592,
        0.005645566458638225,
        0.005102089736369128,
        0.0031113449323404065,
        -0.0034585231818396183,
        -0.0006646232329182824,
        0.0021627094717200568,
        -0.0009271882487525256,
        -0.0028894921763010463,
        3.505002261932043e-05,
        0.007722214175999123,
        0.00038279815097417837,
        -9.249366222671819e-05,
        -0.0014980845890829229
    ],
    "noise_4": [
        0.009888294759703986,
        -0.0008311017333513819,
        -0.003062511356590793,
        0.0014351100914680888,
        6.988452570405945e-05,
        0.002083866724246224,
        0.006195798970821267,
        0.002166694740906738,
        -0.001152880523838535,
        0.00433239580437995,
        -0.0015908207375553611,
        -0.0035446358381860015,
        -0.0010991653773138126,
        -0.00021015789805704313,
        0.002487995104783337,
        -0.0013614561724225086,
        0.00774614049245022,
        -0.0011128876450926747,
        0.0011321432140705401,
        -0.007559414512648662,
        -0.00040717316763768215,
        -0.004408247524892249,
        0.002843543119423505,
        -0.004602850922703107,
        -0.000581070669332423,
        -0.005240852753937328,
        0.002434543590955593,
        -0.00014036308969275483,
        0.007121828769022309,
        0.004288231019110737,
        0.002288282509311659,
        0.0006102918878507833,
        0.00037563064469322774,
        0.0022502416052896422,
        -0.003458455388428739,
        0.0003736842541825209,
        0.0012924194072698823,
        -0.0026576556210785793,
        0.0025491438091340083,
        0.004770908288781973,
        0.0022582536047436887,
        0.0014093489207918223,
        0.00289753220182759,
        0.00024371541729861738,
        -0.000581947662984079,
        0.0058801278851178165,
        0.005946772822478969,
        -0.00035698755737360264,
        0.0002499382003059196,
        -0.001945368289760428,
        -0.0010721349537366081,
        -0.0009024280627366399,
        0.005955836847069195,
        0.0037309711949883974,
        0.0010646548094944352,
        0.0029373428963530594,
        0.001970612139104182,
        0.006023904451011621,
        -0.0037888115589006888,
        -0.0003835841339314322
    ],
    "noise_5": [
        8.8417071440119e-05,
        -0.0069155623216606505,
        -0.003822407505193715,
        0.0009570147519315025,
        0.005058897825649995,
        -0.002423841618055715,
        -0.00021435992290441856,
        0.0016804903191033353,
        -0.00506619496586716,
        -0.0027354010672661078,
        -0.000847389090690565,
        0.0049942126748123775,
        -0.009503927611092328,
        0.002577081702203544,
        -0.0023202104606692806,
        -0.0009189550177134009,
        -0.0054165244068091496,
        -0.0031769927690548294,
        -0.011241322840623454,
        0.0037270674176462775,
        0.003027533498178758,
        0.003741093390567049,
        0.005915109218991823,
        -1.0577476107700726e-05,
        -0.0032929410728040113,
        -0.002901362943106594,
        0.00070707277191259,
        -0.0031969164611780183,
        -0.0011292622904417278,
        -0.004268120408379431,
        -0.0007321571169804094,
        0.002320753106910553,
        0.0019554338976422946,
        0.0010235447250439638,
        -0.0023598070198298272,
        -0.0029718654896909204,
        -0.007454155545172689,
        -0.004421566686155838,
        -0.0010855217478015133,
        0.0040125300510060625,
        0.003147346421760553,
        -0.002461718239378494,
        -0.0009056817720096905,
        -0.0038283796090645404,
        0.004741392709229575,
        -0.002078608803240653,
        0.0009394985968033469,
        -0.0007872822761348206,
        -0.004727631090821487,
        -0.00517333823994382,
        0.0031760979323505966,
        -0.0012406724670246062,
        0.003304518074267643,
        0.003848093002138825,
        -0.00021943339860250061,
        0.002374507718225911,
        0.007082445608372829,
        -0.006144542711732514,
        -0.002828562744773329,
        -0.00499632906241862
    ],
    "noise_6": [
        -0.000846835115925972,
        -0.0056330961057065795,
        0.0054585447945663555,
        0.0010612269412038082,
        -0.0005880249205952642,
        0.004265876774779382,
        0.002907309736225985,
        0.0076919915223553036,
        0.004212391925096123,
        -0.004365863309920787,
        0.0037912107817113625,
        -0.0025594634805995798,
        -0.005962383443476717,
        0.003264874522765901,
        0.0035266855940469747,
        -0.0007526031883930112,
        0.00194958247726127,
        0.0015669642986533814,
        -0.004289980723436535,
        -0.004707003978494485,
        0.002437220921460806,
        0.0007850874576154136,
        -0.002771460337810431,
        0.002232288299811027,
        -0.002249728372492184,
        0.0024275394833987362,
        -0.0008800563433952802,
        -0.005550549751670476,
        -0.0016946092648753872,
        -0.005468120366415402,
        0.0023429245509886012,
        0.0015771328024222688,
        -0.0013907582603120622,
        0.005551873490825993,
        0.004174238649706051,
        -0.001659087320198151,
        -0.003714449850300741,
        -0.00604452235670076,
        0.00041742789399496714,
        -0.0029341814397623334,
        -0.004846960818348567,
        4.0812407072563146e-05,
        0.0020401327012308317,
        0.004536861940827558,
        0.005234402594852553,
        -6.511209575709027e-05,
        -0.008812343029006867,
        0.008336909584534577,
        -0.0017986993326289842,
        -0.004198744677252671,
        -0.0032762324930788777,
        -0.0013764867787608064,
        0.0009921370508127203,
        -0.004093828059452076,
        -0.0013886785950407287,
        -0.002822507749497162,
        -0.0037674329106914687,
        0.0017907900783009306,
        0.003216375313857562,
        0.003513263885843296
    ],
    "noise_7": [
        0.0071906293611012344,
        -0.0005249774625212275,
        0.0027284784195232238,
        0.0034852081611045777,
        -0.002520997514573484,
        -0.004194082842107243,
        -0.007337795552567763,
        -0.003217345201121566,
        -0.000476357333344627,
        0.0014865530640926425,
        -0.0010363552819789158,
        0.0027235030027843634,
        -0.003413940517344604,
        -0.009566747348211118,
        0.0007426708611182699,
        -0.003405747918323356,
        -0.003733674862667345,
        0.0024492380022036607,
        -0.000320335349249293,
        -0.0014970444454700115,
        -0.0023601161844618982,
        0.00011514561180913474,
        -0.0010059420537394455,
        0.005030985500067908,
        -0.0017025818237909594,
        -0.0007907515358434741,
        -0.0023581180239788477,
        0.0029549397885386608,
        0.0035467575538587716,
        0.0034474014048116856,
        -0.002774766366839255,
        -0.0023834570714408427,
        0.0023309334891520607,
        0.002706337141881152,
        -0.006732012659204553,
        -0.00022233786375239873,
        0.0028319891556604316,
        0.007699683610502009,
        -0.0018199143130545204,
        0.007108768872860024,
        0.0046160890788541084,
        0.010670885901175356,
        -0.00033169623176563503,
        0.0030100657196682977,
        0.004842144885484772,
        -0.004115919579070042,
        0.004638004692583022,
        0.0016997980998877324,
        -0.001057349093112128,
        -8.576436380907748e-05,
        -0.0017512523052411206,
        0.008079501879318166,
        0.0008132114173130439,
        -0.0016380778139012799,
        -0.0005729948249043975,
        -0.006618260521416813,
        -0.0002033966057640153,
        0.006014061806805372,
        0.009600957998021102,
        -0.0008439218093478627
    ],
    "rollouts": 8
}







