{
    "ParameterSet": [
        0.11454073580502493,
        -0.01246652922344773,
        0.02885980010316246,
        -0.08302514093607556,
        0.13749391524874316,
        0.011293687315063762,
        0.21781814718628614,
        -0.05717693762937473,
        0.08007068566443352,
        -0.05519927410346273,
        -0.0072981955745800645,
        0.10916313286721581,
        0.12363646832328626,
        0.03843371753654902,
        0.10034952740262798,
        -0.10752676670825158,
        0.06246736928630777,
        -0.07983106296767942,
        0.13296110359762825,
        -0.074168319096389,
        0.39598194060627356,
        0.13285589896304312,
        0.3050586003553028,
        0.020463254546760307,
        0.3606562686157529,
        0.27294114304776895,
        0.02822092063427488,
        0.34005570436973054,
        0.3508385450282541,
        0.21056310954574728,
        0.04047176901314498,
        0.06353479907230855,
        0.04852115293037661,
        0.1491832000680391,
        -0.014079107895541142,
        -0.0027133214972220017,
        -0.08513456908434189,
        0.3089016847536881,
        0.34839026075870916,
        0.06862369425937742,
        -0.4690383710975142,
        -0.3582926055442416,
        -0.17777172460502924,
        -0.5490683771130361,
        -0.406241753968612,
        -0.21063197511914622,
        -0.30001737318458616,
        -0.2616084749785364,
        -0.5208898440959718,
        -0.3464228275124631,
        -0.4100883818877077,
        -0.24364189811897732,
        -0.6595554571221369,
        -0.5674678999297225,
        -0.4789983752284689,
        -0.3255039642394815,
        -0.428741923919401,
        -0.2235526795175084,
        -0.5013436083747691,
        0.2708043660518259
    ],
    "checked": "indirect",
    "iteration": 89,
    "noise": [
        -0.00011967718848387507,
        0.0014660597132705505,
        0.0026031917460692224,
        -0.007079732091093771,
        0.0005593905499030443,
        -0.006053355978376011,
        0.006724055895964643,
        0.0056415726522915455,
        -0.00028785907170162734,
        0.00047261581872160924,
        -0.004199472068187759,
        -0.010046084790424232,
        0.0066026701545490625,
        0.0014999916146440529,
        -0.00010537726779426339,
        0.0002054428391073947,
        0.005593640714652886,
        0.006944163676720049,
        0.00598001598108286,
        0.016601566596691167,
        0.008041385162906886,
        0.0019029464439012937,
        -0.007769386237331394,
        -0.0007999063445999315,
        0.011722647250864329,
        -0.0023927581545176357,
        -0.0013158285845432881,
        0.0007350622569399986,
        0.00972932123319397,
        -0.005747168702070949,
        -0.009785292623833717,
        -0.008561814519144928,
        0.001993944934962693,
        0.005196943466407194,
        -0.0010610200744769745,
        0.0037773691346456237,
        0.0025004034974094587,
        -0.002446121971879118,
        -0.0012134787411882718,
        0.002177693385535298,
        0.0012842132525423724,
        -0.0025288507743401116,
        -0.004461819867215948,
        0.006757981696398171,
        -0.00907420187192922,
        -0.007549203147863323,
        0.005025585486497452,
        -0.003709601075452999,
        0.0065737822023458235,
        -0.0026816376617217266,
        0.006432842108562357,
        0.00320003328044778,
        -0.0008373087725497941,
        -0.0028050607215798053,
        -0.0004594266201784108,
        0.00263673232451037,
        -0.00650146088869509,
        0.00516576168101696,
        0.010892689179424373,
        -0.0015834192315823104
    ],
    "noise_0": [
        -0.00011967718848387507,
        0.0014660597132705505,
        0.0026031917460692224,
        -0.007079732091093771,
        0.0005593905499030443,
        -0.006053355978376011,
        0.006724055895964643,
        0.0056415726522915455,
        -0.00028785907170162734,
        0.00047261581872160924,
        -0.004199472068187759,
        -0.010046084790424232,
        0.0066026701545490625,
        0.0014999916146440529,
        -0.00010537726779426339,
        0.0002054428391073947,
        0.005593640714652886,
        0.006944163676720049,
        0.00598001598108286,
        0.016601566596691167,
        0.008041385162906886,
        0.0019029464439012937,
        -0.007769386237331394,
        -0.0007999063445999315,
        0.011722647250864329,
        -0.0023927581545176357,
        -0.0013158285845432881,
        0.0007350622569399986,
        0.00972932123319397,
        -0.005747168702070949,
        -0.009785292623833717,
        -0.008561814519144928,
        0.001993944934962693,
        0.005196943466407194,
        -0.0010610200744769745,
        0.0037773691346456237,
        0.0025004034974094587,
        -0.002446121971879118,
        -0.0012134787411882718,
        0.002177693385535298,
        0.0012842132525423724,
        -0.0025288507743401116,
        -0.004461819867215948,
        0.006757981696398171,
        -0.00907420187192922,
        -0.007549203147863323,
        0.005025585486497452,
        -0.003709601075452999,
        0.0065737822023458235,
        -0.0026816376617217266,
        0.006432842108562357,
        0.00320003328044778,
        -0.0008373087725497941,
        -0.0028050607215798053,
        -0.0004594266201784108,
        0.00263673232451037,
        -0.00650146088869509,
        0.00516576168101696,
        0.010892689179424373,
        -0.0015834192315823104
    ],
    "noise_1": [
        0.003253537320458239,
        -0.008063749166558356,
        0.004791737434703338,
        0.0009492531081395909,
        -0.0012679940916272385,
        0.0015692374258873135,
        0.0018925384679355927,
        0.005320374454738468,
        -0.007084979498819162,
        0.0031962045746812646,
        -0.0011939710194444266,
        0.001959402562123175,
        -0.007261412067235194,
        0.0014154714135442468,
        -0.002899360471909121,
        -0.006994980038395819,
        -0.004069425246330211,
        -0.0012135737179785626,
        -0.01567616920372822,
        0.0002816428953072522,
        -0.0075272957740796205,
        0.003078424019139148,
        -0.0026937382645681423,
        0.008512474190532682,
        0.0007712269639518093,
        -0.0036039701963356766,
        -0.003546574132737369,
        -0.0005642944805870107,
        -0.005962816892439519,
        0.005011665591936294,
        0.0038051367838488137,
        0.00018908497154416717,
        0.0025294639343289285,
        0.0015211018459935644,
        0.0015322715406035638,
        -0.0051282342520068405,
        0.007945572456726935,
        0.006646007204962595,
        -0.0018095404770252321,
        0.000838955762607796,
        -0.004848798437623444,
        -0.003968455333945584,
        -0.0009076261339448604,
        0.005993528039968609,
        -0.002561584420542097,
        0.002433412063668003,
        0.005440056151220216,
        -0.005467358085552192,
        -0.005410121909512126,
        0.0017086067449512184,
        0.00042478701131202807,
        -0.004340025735635126,
        -0.002134727055191335,
        0.002461390230479513,
        0.008353564805281686,
        -0.002108072707000858,
        -0.006686180034973663,
        -0.001370350064620559,
        0.0022843034545206235,
        -0.0049711794422988
    ],
    "noise_2": [
        -0.004321006569200164,
        0.0032347760090951283,
        0.0074782201533542215,
        0.007173919151050604,
        0.0005528939492077949,
        0.004090389314119445,
        -0.00018989146091827574,
        -0.003041594339776257,
        0.00921463969729276,
        0.001569857317368106,
        -0.0017650749878519044,
        0.002262364906267403,
        -0.0050399496933903045,
        0.004284825935761555,
        -0.003470543837704974,
        0.01213344956096162,
        -0.004317720279968689,
        -0.003042229150011667,
        0.002380285391424251,
        -0.00795497699088176,
        0.009424714179219664,
        0.0021917295024173116,
        0.0037505359652307488,
        -0.005721857546934465,
        -0.0007716077462804253,
        -0.0005950892455539485,
        0.0001796815306303381,
        -0.010981409696106515,
        0.0009284162241379273,
        -0.006531589483043645,
        0.0037718513277597786,
        0.0005882955956042928,
        0.001652385207057844,
        0.0023426247399752384,
        -0.0018682796138612112,
        -0.0012341740365377665,
        -0.005208726525448426,
        -0.001933282070155794,
        0.010095318598001292,
        0.003736075330296435,
        0.001633779108139673,
        0.0002965978698545132,
        -0.0018452348160439027,
        0.005170358415987023,
        -0.005859777265472839,
        -4.9165039372096926e-05,
        -0.005064640261415767,
        0.0034436104317083845,
        -0.00025484493164121784,
        -0.008483886824683913,
        -0.0002644015834253569,
        -0.003160974359642168,
        0.0009474447399396178,
        -0.0012942335273129597,
        0.0018300812222138013,
        -0.0032976096108686516,
        -0.006612774165449169,
        0.006357655796458418,
        -0.003454290084221961,
        0.005449673269901373
    ],
    "noise_3": [
        -0.0038924262816019853,
        0.005266608518052834,
        -0.008709487222607566,
        -0.007577156084240666,
        -0.0026472690075461415,
        -0.005603336894396816,
        -0.005762690078229448,
        0.008469752084047044,
        0.0036605039159505748,
        0.0023471198678267336,
        -8.814883782304965e-05,
        0.0008797384272037822,
        0.0068475754433221505,
        -0.00019562043973557865,
        0.007439895192942209,
        0.0027521675814715253,
        0.0008240789937022952,
        0.000817882927990672,
        -0.008609125983919403,
        -0.004446888208332814,
        -0.005058384351706918,
        -0.003050932741571521,
        0.007052792023611967,
        -0.0018649464647115205,
        0.005197920966664699,
        0.004318558003759057,
        0.003372836933514222,
        0.005486416470735048,
        -0.004993346166764741,
        -0.006096728056726299,
        -0.007513975695274768,
        0.0002451969631807984,
        -0.005681561851940666,
        0.0009707673826002836,
        -0.006336719574765014,
        0.0022531701765324307,
        -0.003141645720074593,
        -3.080166957136026e-05,
        0.0016428315331001244,
        0.008517573393879664,
        -0.005806060045436562,
        0.0023702308012388475,
        0.0004853821641186769,
        0.0012700880708899714,
        0.005797936995782604,
        0.002199619795004278,
        -0.0032378759080138103,
        0.009484722873945748,
        0.005180557891157936,
        -0.002972826690268149,
        -0.006823019490485431,
        -0.004405917113928683,
        -0.0038810452597431897,
        0.006961295013976355,
        -0.0019212962251743998,
        0.001481576630595908,
        0.011536908784499372,
        -0.006237536038780747,
        0.001832044257575773,
        0.0012183281278494932
    ],
    "noise_4": [
        0.007005946343467705,
        0.0036127526608338407,
        -0.004161165445173125,
        0.0021028704207176636,
        -0.012633778020475344,
        0.004777605390550466,
        0.005074486022399802,
        0.002096696998399984,
        0.0027535079657767217,
        0.0028757618727790653,
        -0.0016713248633546697,
        0.006633954260899398,
        -0.0032950423949144733,
        0.0028310667326974332,
        0.006778989918893008,
        0.002294391399519947,
        -0.009421389623253664,
        0.009128579813723529,
        -0.0017868872062483862,
        -0.002116684084045737,
        -0.00531293467832689,
        0.0038095073475882934,
        0.0046929389841718575,
        -0.00825412924210919,
        -0.009725137326062148,
        -0.010810671555609304,
        -0.0013984204712426359,
        -0.003538821008935231,
        -0.009867243642628644,
        -0.009917754727460168,
        0.004616660471158496,
        0.003972956377909408,
        0.006173414148540887,
        -0.003486691107957829,
        -0.007116243964298904,
        -0.0015526659703987457,
        0.005197048153853838,
        -0.00029606113772870146,
        0.01032882950862077,
        -0.0006131394309818587,
        -0.0019415478254310586,
        0.005139330913587191,
        0.0020180203830613727,
        -6.960602228654549e-05,
        0.005335979040594618,
        -0.0017435226661960256,
        -0.004015561735835525,
        0.0009172565409973104,
        -0.0011441757507219695,
        0.0023779614434218436,
        0.009337884769488086,
        -0.0011948737190873246,
        -0.002600715394757533,
        0.0019378779165189586,
        -0.001519748092234959,
        -0.0021371457267155666,
        -0.0038597471034680056,
        -0.0017946533512552786,
        0.000992055700867628,
        -0.00012081328281976175
    ],
    "noise_5": [
        0.0012451751970108782,
        -0.0032462151212252982,
        0.0037834702048356182,
        0.005407067759374211,
        0.009185448067924682,
        0.002028142485498341,
        0.00042149434298557984,
        -0.00943610955509841,
        0.0020598401935246037,
        -0.010186066628862657,
        -0.005972259087565256,
        -0.005132016398818655,
        -0.0028439683761277835,
        -0.0014652825151152862,
        0.006814601176421205,
        0.003864259534095655,
        -0.012537862162247112,
        0.013096684809090348,
        0.002010514861301485,
        -0.0009649033425155872,
        -0.00828208961700694,
        0.007600047853421185,
        -9.977733610538356e-05,
        0.008335769865433475,
        -0.0024797783174788455,
        0.00385031337818296,
        -0.001130583693033989,
        -0.010597517147171295,
        0.000805022822807067,
        0.0015069909723057877,
        0.0022199757473027383,
        0.0045768930540176335,
        -0.003095080080982793,
        -0.004667321862934977,
        0.008833783644863707,
        -0.008253864529600476,
        -0.00021618999598184893,
        0.0018159535795965846,
        -0.007897308712822643,
        -0.007219050721036323,
        -0.0005806149531450376,
        0.006179513828753865,
        0.0018175377992866936,
        -0.0035635022918955195,
        0.0016436258631968533,
        -0.008395831895877904,
        0.004101247398416038,
        0.008917872346341525,
        0.001171599279175485,
        0.0033142195093557583,
        0.006828009343337449,
        0.0018272352848736283,
        -9.236437819950992e-05,
        0.004513614155456667,
        0.0068223690953532696,
        -0.0016873656483922866,
        0.005794541504138375,
        0.005137943792568135,
        0.002095236621852257,
        0.00013551246409917441
    ],
    "noise_6": [
        0.0013990670494993358,
        -0.0003259764474010531,
        0.009163192152660057,
        -0.0019652729778130915,
        -0.009348479428690548,
        -0.0007090282479337146,
        0.003560770371001818,
        -0.0015094430848860867,
        0.001527475778197442,
        -0.0012797682681801455,
        -0.001307810203195957,
        0.0033485026045670736,
        -0.003961778339110346,
        -0.0016682373987527046,
        -0.0003916885811812532,
        -0.0016040956909156277,
        0.002880328156405814,
        -0.0031269913317412195,
        -0.008844133434550623,
        -0.003954710737483014,
        -0.0072368022061671524,
        0.009975778185703452,
        -0.0018361911016694468,
        0.0017586370348109026,
        0.0011423372187577621,
        -0.00396586012694595,
        0.004953541981805675,
        -0.002706031321485075,
        -0.0010046027054314863,
        0.001624689363579455,
        -0.0022014894545802147,
        -0.00811954324451059,
        0.0013167593731802261,
        -0.008349031231095878,
        -0.008671644409918189,
        -0.0067745788226165,
        0.0027907747917381436,
        0.0029443909919105457,
        0.0028248293243400137,
        -0.005841251223588593,
        -0.002750516998118956,
        0.002024107533049606,
        -0.001883496561202886,
        0.003084746020252204,
        -0.004719892663399029,
        0.0031118981032047335,
        -0.004036774001787897,
        -0.0066532231751265936,
        -0.006918848297086321,
        -0.00548327541531685,
        -0.0008673191521502236,
        -0.0031477080745301606,
        -0.0015683553422591754,
        0.00425953553942423,
        -0.0009955991584889889,
        0.003311569613296325,
        -0.0009262755177019085,
        -0.00047316254482725726,
        0.006430585888698037,
        0.0018490695308745443
    ],
    "noise_7": [
        0.004061352083949866,
        -0.0044126991985319695,
        0.0012726721762408592,
        0.004587322270810403,
        -0.003915181123419128,
        -0.003920209099552775,
        -0.0013816027485937413,
        0.0004990739897508317,
        0.006096987414401884,
        -0.0003225158788627052,
        0.0022360550958663143,
        -0.0013657124365363095,
        -0.0014985216781483474,
        0.00029635611001033104,
        -0.00046976518254503353,
        0.001802244626372206,
        -0.008644450760907103,
        -0.0022934033985656547,
        0.0015476492319469834,
        0.00011637200826743593,
        -0.0018027237543800502,
        0.004368525948596048,
        0.00655483995028005,
        0.004853564232765959,
        -0.0009637777145299729,
        -0.004776992337897312,
        -0.002378498768395707,
        -0.0013649209879150544,
        -0.008714611202514726,
        -0.0021235622336225465,
        0.001275005252244561,
        -0.00015882780053783882,
        0.0034250807810999625,
        0.0062519343947880935,
        -0.00528455314673269,
        0.008888344334082806,
        -0.0002781093342759494,
        -0.004157509507512297,
        -0.005631169964338561,
        -0.0023674344317792992,
        0.008959856921102368,
        0.0003552408722485671,
        0.0029727697882264165,
        -0.0007539386584571278,
        -0.007546717960413995,
        -9.494662373549582e-05,
        -0.004591936573918745,
        0.005811172199137621,
        -0.011535645904770723,
        -0.002101174619462921,
        0.009247746417741594,
        -0.0055798548519898124,
        -0.0013226091130827205,
        -0.0024848659155552676,
        0.005181233307639539,
        -0.005206976404928308,
        -0.003948778436879248,
        -0.0022197461375083717,
        0.009873533095000572,
        -0.007141323259954817
    ],
    "rollouts": 8
}







